<svg xmlns="http://www.w3.org/2000/svg" width="28" height="28" viewBox="0 0 32 32">
  <defs>
    <style>
      .cls-1 {
        fill: #666;
        fill-rule: evenodd;
      }
    </style>
  </defs>
  <path id="Forma_1" data-name="Forma 1" class="cls-1" d="M24.26,5.951H20.888V3.783a0.78,0.78,0,0,0-.8-0.774,0.12,0.12,0,0,0-.085.028,0.108,0.108,0,0,0-.057-0.028H11.909a0.768,0.768,0,0,0-.783.774V5.951H7.74a1.692,1.692,0,0,0-1.722,1.7V10.44H7.512V26.3A1.668,1.668,0,0,0,9.22,27.99H22.78A1.68,1.68,0,0,0,24.5,26.3V10.44h1.48V7.654A1.692,1.692,0,0,0,24.26,5.951ZM12.692,4.557h6.617V5.951H12.692V4.557ZM22.922,26.3a0.122,0.122,0,0,1-.142.141H9.22A0.122,0.122,0,0,1,9.077,26.3V10.44H22.922V26.3ZM24.4,8.892H7.6V7.654A0.132,0.132,0,0,1,7.74,7.5H24.26a0.132,0.132,0,0,1,.142.155V8.892h0Zm-5.535,3.364h1.579V25.063H18.867V12.256Zm-3.643,0H16.8V25.063H15.224V12.256Zm-3.643,0h1.579V25.063H11.582V12.256Z"/>
</svg>
